\BOOKMARK [0][-]{chapter.1}{Introducci\363n}{}% 1
\BOOKMARK [1][-]{section.1.1}{Requerimiento Funcional}{chapter.1}% 2
\BOOKMARK [0][-]{chapter.2}{Documentaci\363n del proceso}{}% 3
\BOOKMARK [1][-]{section.2.1}{Misi\363n}{chapter.2}% 4
\BOOKMARK [1][-]{section.2.2}{Visi\363n}{chapter.2}% 5
\BOOKMARK [1][-]{section.2.3}{Pol\355ticas}{chapter.2}% 6
\BOOKMARK [1][-]{section.2.4}{Reglas de negocio}{chapter.2}% 7
\BOOKMARK [1][-]{section.2.5}{\301reas y actores}{chapter.2}% 8
\BOOKMARK [1][-]{section.2.6}{BPMN}{chapter.2}% 9
\BOOKMARK [0][-]{chapter.3}{Modelo de Negocios}{}% 10
\BOOKMARK [1][-]{section.3.1}{Modelo de entidades del negocio}{chapter.3}% 11
\BOOKMARK [1][-]{section.3.2}{Descripci\363n de entidades del negocio}{chapter.3}% 12
\BOOKMARK [2][-]{subsection.3.2.1}{Atributos de ``Alumno''}{section.3.2}% 13
\BOOKMARK [0][-]{chapter.4}{Casos de uso}{}% 14
\BOOKMARK [1][-]{section.4.1}{CU2 }{chapter.4}% 15
\BOOKMARK [2][-]{subsection.4.1.1}{Descripci\363n completa}{section.4.1}% 16
\BOOKMARK [2][-]{subsection.4.1.2}{Atributos importantes}{section.4.1}% 17
\BOOKMARK [2][-]{subsection.4.1.3}{Trayectorias del Caso de Uso}{section.4.1}% 18
\BOOKMARK [0][-]{chapter.5}{Reglas de negocio}{}% 19
\BOOKMARK [1][-]{section.5.1}{Reglas de Negocio}{chapter.5}% 20
\BOOKMARK [0][-]{chapter.6}{Pantallas}{}% 21
\BOOKMARK [1][-]{subsection.6.0.1}{IU1 Pantalla de acciones}{chapter.6}% 22
\BOOKMARK [2][-]{subsection.6.0.2}{IU2 Pantalla de modificaciones}{subsection.6.0.1}% 23
